LSP/druhyUkolfrikulinovaNalepkaJirajak2/simulation/qsim/VGA.msim.vcd
$comment
	File created using the following command:
		vcd file VGA.msim.vcd -direction
$end
$date
	Thu Sep 05 15:23:02 2019
$end
$version
	ModelSim Version 10.1d
$end
$timescale
	1ps
$end
$scope module VGAgenerator_vlg_vec_tst $end
$var reg 1 ! ACLRN $end
$var reg 1 " CLOCK_50 $end
$var wire 1 # VGA_BLANK $end
$var wire 1 $ VGA_CLK $end
$var wire 1 % VGA_HS $end
$var wire 1 & VGA_SYNC $end
$var wire 1 ' VGA_VS $end
$var wire 1 ( xcolumn [9] $end
$var wire 1 ) xcolumn [8] $end
$var wire 1 * xcolumn [7] $end
$var wire 1 + xcolumn [6] $end
$var wire 1 , xcolumn [5] $end
$var wire 1 - xcolumn [4] $end
$var wire 1 . xcolumn [3] $end
$var wire 1 / xcolumn [2] $end
$var wire 1 0 xcolumn [1] $end
$var wire 1 1 xcolumn [0] $end
$var wire 1 2 yrow [9] $end
$var wire 1 3 yrow [8] $end
$var wire 1 4 yrow [7] $end
$var wire 1 5 yrow [6] $end
$var wire 1 6 yrow [5] $end
$var wire 1 7 yrow [4] $end
$var wire 1 8 yrow [3] $end
$var wire 1 9 yrow [2] $end
$var wire 1 : yrow [1] $end
$var wire 1 ; yrow [0] $end
$var wire 1 < sampler $end
$scope module i1 $end
$var wire 1 = gnd $end
$var wire 1 > vcc $end
$var wire 1 ? unknown $end
$var tri1 1 @ devclrn $end
$var tri1 1 A devpor $end
$var tri1 1 B devoe $end
$var wire 1 C LessThan6~0_combout $end
$var wire 1 D CLOCK_50~combout $end
$var wire 1 E CLOCK_50~clkctrl_outclk $end
$var wire 1 F gen:yr[0]~1_combout $end
$var wire 1 G ACLRN~combout $end
$var wire 1 H ACLRN~clkctrl_outclk $end
$var wire 1 I gen:yr[0]~2 $end
$var wire 1 J gen:yr[1]~1_combout $end
$var wire 1 K gen:xcounter[0]~2 $end
$var wire 1 L gen:xcounter[1]~2 $end
$var wire 1 M gen:xcounter[2]~1_combout $end
$var wire 1 N gen:xcounter[2]~regout $end
$var wire 1 O gen:xcounter[2]~2 $end
$var wire 1 P gen:xcounter[3]~1_combout $end
$var wire 1 Q gen:xcounter[3]~regout $end
$var wire 1 R gen:xcounter[1]~1_combout $end
$var wire 1 S gen:xcounter[1]~regout $end
$var wire 1 T LessThan6~1_combout $end
$var wire 1 U gen:xcounter[3]~2 $end
$var wire 1 V gen:xcounter[4]~2 $end
$var wire 1 W gen:xcounter[5]~1_combout $end
$var wire 1 X gen:xcounter[5]~regout $end
$var wire 1 Y gen:xcounter[0]~1_combout $end
$var wire 1 Z gen:xcounter[0]~regout $end
$var wire 1 [ LessThan6~2_combout $end
$var wire 1 \ gen:xcounter[5]~2 $end
$var wire 1 ] gen:xcounter[6]~1_combout $end
$var wire 1 ^ gen:xcounter[6]~regout $end
$var wire 1 _ gen:xcounter[6]~2 $end
$var wire 1 ` gen:xcounter[7]~2 $end
$var wire 1 a gen:xcounter[8]~1_combout $end
$var wire 1 b gen:xcounter[8]~regout $end
$var wire 1 c gen:xcounter[8]~2 $end
$var wire 1 d gen:xcounter[9]~1_combout $end
$var wire 1 e gen:xcounter[9]~regout $end
$var wire 1 f gen:xcounter[9]~2 $end
$var wire 1 g gen:xcounter[10]~1_combout $end
$var wire 1 h gen:xcounter[10]~regout $end
$var wire 1 i LessThan6~3_combout $end
$var wire 1 j gen:yr[1]~regout $end
$var wire 1 k gen:yr[1]~2 $end
$var wire 1 l gen:yr[2]~2 $end
$var wire 1 m gen:yr[3]~1_combout $end
$var wire 1 n gen:yr[3]~regout $end
$var wire 1 o gen:yr[3]~2 $end
$var wire 1 p gen:yr[4]~2 $end
$var wire 1 q gen:yr[5]~1_combout $end
$var wire 1 r gen:yr[5]~regout $end
$var wire 1 s gen:yr[5]~2 $end
$var wire 1 t gen:yr[6]~2 $end
$var wire 1 u gen:yr[7]~1_combout $end
$var wire 1 v gen:yr[7]~regout $end
$var wire 1 w gen:yr[7]~2 $end
$var wire 1 x gen:yr[8]~1_combout $end
$var wire 1 y gen:yr[8]~regout $end
$var wire 1 z gen:yr[8]~2 $end
$var wire 1 { gen:yr[9]~1_combout $end
$var wire 1 | gen:yr[9]~regout $end
$var wire 1 } gen:yr[2]~1_combout $end
$var wire 1 ~ gen:yr[2]~regout $end
$var wire 1 !! LessThan7~0_combout $end
$var wire 1 "! LessThan7~1_combout $end
$var wire 1 #! LessThan7~2_combout $end
$var wire 1 $! gen:yr[0]~regout $end
$var wire 1 %! yrow[0]~reg0_regout $end
$var wire 1 &! yrow[1]~reg0feeder_combout $end
$var wire 1 '! yrow[1]~reg0_regout $end
$var wire 1 (! yrow[2]~reg0feeder_combout $end
$var wire 1 )! yrow[2]~reg0_regout $end
$var wire 1 *! yrow[3]~reg0feeder_combout $end
$var wire 1 +! yrow[3]~reg0_regout $end
$var wire 1 ,! gen:yr[4]~1_combout $end
$var wire 1 -! gen:yr[4]~regout $end
$var wire 1 .! yrow[4]~reg0feeder_combout $end
$var wire 1 /! yrow[4]~reg0_regout $end
$var wire 1 0! yrow[5]~reg0_regout $end
$var wire 1 1! gen:yr[6]~1_combout $end
$var wire 1 2! gen:yr[6]~regout $end
$var wire 1 3! yrow[6]~reg0feeder_combout $end
$var wire 1 4! yrow[6]~reg0_regout $end
$var wire 1 5! yrow[7]~reg0feeder_combout $end
$var wire 1 6! yrow[7]~reg0_regout $end
$var wire 1 7! yrow[8]~reg0feeder_combout $end
$var wire 1 8! yrow[8]~reg0_regout $end
$var wire 1 9! yrow[9]~reg0_regout $end
$var wire 1 :! xcolumn[0]~reg0feeder_combout $end
$var wire 1 ;! xcolumn[0]~reg0_regout $end
$var wire 1 <! xcolumn[1]~reg0feeder_combout $end
$var wire 1 =! xcolumn[1]~reg0_regout $end
$var wire 1 >! xcolumn[2]~reg0feeder_combout $end
$var wire 1 ?! xcolumn[2]~reg0_regout $end
$var wire 1 @! gen:xcounter[4]~1_combout $end
$var wire 1 A! gen:xcounter[4]~regout $end
$var wire 1 B! xcolumn[3]~reg0feeder_combout $end
$var wire 1 C! xcolumn[3]~reg0_regout $end
$var wire 1 D! xcolumn[4]~reg0_regout $end
$var wire 1 E! xcolumn[5]~reg0feeder_combout $end
$var wire 1 F! xcolumn[5]~reg0_regout $end
$var wire 1 G! gen:xcounter[7]~1_combout $end
$var wire 1 H! gen:xcounter[7]~regout $end
$var wire 1 I! xcolumn[6]~reg0feeder_combout $end
$var wire 1 J! xcolumn[6]~reg0_regout $end
$var wire 1 K! xcolumn[7]~reg0_regout $end
$var wire 1 L! xcolumn[8]~reg0feeder_combout $end
$var wire 1 M! xcolumn[8]~reg0_regout $end
$var wire 1 N! xcolumn[9]~reg0_regout $end
$var wire 1 O! VGA_CLK~reg0feeder_combout $end
$var wire 1 P! VGA_CLK~reg0_regout $end
$var wire 1 Q! LessThan5~0_combout $end
$var wire 1 R! gen~0_combout $end
$var wire 1 S! gen~1_combout $end
$var wire 1 T! VGA_BLANK~reg0_regout $end
$var wire 1 U! gen~2_combout $end
$var wire 1 V! gen~3_combout $end
$var wire 1 W! VGA_HS~reg0_regout $end
$var wire 1 X! gen~4_combout $end
$var wire 1 Y! gen~5_combout $end
$var wire 1 Z! VGA_VS~reg0_regout $end
$var wire 1 [! VGA_SYNC~0_combout $end
$var wire 1 \! VGA_SYNC~reg0_regout $end
$upscope $end
$upscope $end
$enddefinitions $end
#0
$dumpvars
0!
0"
x#
x$
x%
x&
x'
x1
x0
x/
x.
x-
x,
x+
x*
x)
x(
x;
x:
x9
x8
x7
x6
x5
x4
x3
x2
x<
0=
1>
x?
1@
1A
1B
xC
0D
xE
xF
0G
xH
xI
xJ
xK
xL
xM
0N
xO
xP
0Q
xR
0S
xT
xU
xV
xW
0X
xY
0Z
x[
x\
x]
0^
x_
x`
xa
0b
xc
xd
0e
xf
xg
0h
xi
xj
xk
xl
xm
xn
xo
xp
xq
xr
xs
xt
xu
xv
xw
xx
xy
xz
x{
x|
x}
x~
x!!
x"!
x#!
x$!
x%!
x&!
x'!
x(!
x)!
x*!
x+!
x,!
x-!
x.!
x/!
x0!
x1!
x2!
x3!
x4!
x5!
x6!
x7!
x8!
x9!
x:!
x;!
x<!
x=!
x>!
x?!
x@!
0A!
xB!
xC!
xD!
xE!
xF!
xG!
0H!
xI!
xJ!
xK!
xL!
xM!
xN!
xO!
0P!
xQ!
xR!
xS!
xT!
xU!
xV!
xW!
xX!
xY!
xZ!
x[!
x\!
$end
#118
0E
0H
#218
0\!
0Z!
0W!
0T!
0N!
0M!
0K!
0J!
0F!
0D!
0C!
0?!
0=!
0;!
09!
08!
06!
04!
00!
0/!
0+!
0)!
0'!
0%!
0j
0n
0r
0v
0y
0|
0~
0$!
0-!
02!
#474
0[
#475
0O!
#476
0i
#581
0C
#595
0<!
#633
0>!
#647
0E!
#655
0I!
#713
0_
#718
1f
#721
0c
#743
1T
#758
0K
#759
1U
#760
1\
#761
1`
1L
#782
1Y
1U!
#789
0&!
#806
0O
#816
0.!
0(!
#856
0*!
#869
0:!
#873
0B!
#878
03!
#884
05!
#895
07!
#910
0L!
#932
0V
#933
1w
0z
#943
1s
#945
1o
#954
0I
#961
1X!
#965
0#!
#978
1F
#980
1!!
#986
0l
#987
0p
0t
#1024
1k
#1038
0V!
#1089
1R!
#1123
0G!
#1128
0g
0Q!
#1131
0d
#1168
0R
#1169
0@!
#1170
0]
#1171
0M
0a
#1216
0P
#1342
0W
#1343
0{
0x
#1353
01!
#1355
0,!
#1364
0J
#1368
1"!
#1396
0m
#1397
0u
0q
#1434
0}
#1531
0Y!
#1532
0[!
#1806
0S!
#3588
01
#3590
06
#3599
04
#3610
0(
#3618
0)
#3806
08
#3829
0+
#3832
03
#3837
0*
#3846
0,
#3847
09
#3849
0.
#3850
0:
#3853
0-
#3854
00
#3859
07
#3864
0/
#3875
02
#3898
0;
#3902
05
#4277
1%
#4471
1#
#4488
1&
#4606
0$
#4721
1'
#10000
1!
1"
0<
#10999
1D
1G
#11117
1H
1E
#20000
0"
1<
#20999
0D
#21117
0E
#30000
1"
0<
#30999
1D
#31117
1E
#32897
1Z
#33372
1O!
#33655
1K
#33679
0Y
#34065
1R
#40000
0"
1<
#40999
0D
#41117
0E
#43014
1P!
#47620
1$
#50000
1"
0<
#50999
1D
#51117
1E
#52897
1S
0Z
#53372
0O!
#53655
0K
#53679
1Y
#53766
1:!
#60000
0"
1<
#60999
0D
#61117
0E
#63014
0P!
#67620
0$
#70000
1"
0<
#70999
1D
#71117
1E
#72897
1Z
#72904
1;!
#73372
1O!
#73655
1K
#73679
0Y
#73726
0L
#74065
0R
#74136
1M
#76274
11
#80000
0"
1<
#80999
0D
#81117
0E
#83014
1P!
#87620
1$
#90000
1"
0<
#90999
1D
#91117
1E
#92897
1N
0S
0Z
#93372
0O!
#93492
1<!
#93638
0M
#93655
0K
#93658
1L
#93679
1Y
#93766
0:!
#94068
1M
#100000
0"
1<
#100999
0D
#101117
0E
#103014
0P!
#107620
0$
#110000
1"
0<
#110999
1D
#111117
1E
#112897
1Z
#112901
1=!
#112904
0;!
#113372
1O!
#113655
1K
#113679
0Y
#114065
1R
#116274
01
#116537
10
#120000
0"
1<
#120999
0D
#121117
0E
#123014
1P!
#127620
1$
#130000
1"
0<
#130999
1D
#131117
1E
#132897
1S
0Z
#133372
0O!
#133655
0K
#133679
1Y
#133766
1:!
#140000
0"
1<
#140999
0D
#141117
0E
#143014
0P!
#147620
0$
#150000
1"
0<
#150999
1D
#151117
1E
#152897
1Z
#152904
1;!
#153372
1O!
#153655
1K
#153679
0Y
#153726
0L
#153885
1O
#154065
0R
#154136
0M
#154295
1P
#156274
11
#160000
0"
1<
#160999
0D
#161117
0E
#163014
1P!
#167620
1$
#170000
1"
0<
#170999
1D
#171117
1E
#172897
0N
1Q
0S
0Z
#173372
0O!
#173492
0<!
#173530
1>!
#173638
1M
#173655
0K
#173656
0U
#173658
1L
#173679
1Y
#173680
0P
#173703
0O
#173766
0:!
#173774
1U
#174068
0M
#174113
1P
#180000
0"
1<
#180999
0D
#181117
0E
#183014
0P!
#187620
0$
#190000
1"
0<
#190999
1D
#191117
1E
#192897
1Z
#192901
1?!
0=!
#192904
0;!
#193372
1O!
#193655
1K
#193679
0Y
#194065
1R
#196274
01
#196537
00
#196547
1/
#200000
0"
1<
#200999
0D
#201117
0E
#203014
1P!
#207620
1$
#210000
1"
0<
#210999
1D
#211117
1E
#212897
1S
0Z
#213372
0O!
#213655
0K
#213679
1Y
#213766
1:!
#220000
0"
1<
#220999
0D
#221117
0E
#223014
0P!
#227620
0$
#230000
1"
0<
#230999
1D
#231117
1E
#232897
1Z
#232904
1;!
#233372
1O!
#233655
1K
#233679
0Y
#233726
0L
#234065
0R
#234136
1M
#236274
11
#240000
0"
1<
#240999
0D
#241117
0E
#243014
1P!
#247620
1$
#250000
1"
0<
#250999
1D
#251117
1E
#252897
1N
0S
0Z
#253372
0O!
#253492
1<!
#253638
0M
#253655
0K
#253658
1L
#253679
1Y
#253766
0:!
#254068
1M
#260000
0"
1<
#260999
0D
#261117
0E
#263014
0P!
#267620
0$
#270000
1"
0<
#270999
1D
#271117
1E
#272897
1Z
#272901
1=!
#272904
0;!
#273372
1O!
#273655
1K
#273679
0Y
#274065
1R
#276274
01
#276537
10
#280000
0"
1<
#280999
0D
#281117
0E
#283014
1P!
#287620
1$
#290000
1"
0<
#290999
1D
#291117
1E
#292897
1S
0Z
#293372
0O!
#293655
0K
#293679
1Y
#293766
1:!
#300000
0"
1<
#300999
0D
#301117
0E
#303014
0P!
#307620
0$
#310000
1"
0<
#310999
1D
#311117
1E
#312897
1Z
#312904
1;!
#313372
1O!
#313655
1K
#313679
0Y
#313726
0L
#313885
1O
#313956
0U
#314065
0R
#314136
0M
#314295
0P
#314366
1@!
#316274
11
#320000
0"
1<
#320999
0D
#321117
0E
#323014
1P!
#327620
1$
#330000
1"
0<
#330999
1D
#331117
1E
#332897
0N
0Q
0S
0Z
1A!
#333372
0O!
#333492
0<!
#333530
0>!
#333638
1M
#333655
0K
#333656
1U
#333658
1L
#333679
1Y
#333680
1P
#333703
0O
#333766
0:!
#333770
1B!
#334068
0M
#334113
0P
#340000
0"
1<
#340999
0D
#341117
0E
#343014
0P!
#347620
0$
#350000
1"
0<
#350999
1D
#351117
1E
#352897
1Z
#352901
1C!
0?!
0=!
#352904
0;!
#353372
1O!
#353655
1K
#353679
0Y
#354065
1R
#356274
01
#356532
1.
#356537
00
#356547
0/
#360000
0"
1<
#360999
0D
#361117
0E
#363014
1P!
#367620
1$
#370000
1"
0<
#370999
1D
#371117
1E
#372897
1S
0Z
#373372
0O!
#373655
0K
#373679
1Y
#373766
1:!
#380000
0"
1<
#380999
0D
#381117
0E
#383014
0P!
#387620
0$
#390000
1"
0<
#390999
1D
#391117
1E
#392897
1Z
#392904
1;!
#393372
1O!
#393655
1K
#393679
0Y
#393726
0L
#394065
0R
#394136
1M
#396274
11
#400000
0"
1<
#400999
0D
#401117
0E
#403014
1P!
#407620
1$
#410000
1"
0<
#410999
1D
#411117
1E
#412897
1N
0S
0Z
#413372
0O!
#413492
1<!
#413638
0M
#413655
0K
#413658
1L
#413679
1Y
#413766
0:!
#414068
1M
#420000
0"
1<
#420999
0D
#421117
0E
#423014
0P!
#427620
0$
#430000
1"
0<
#430999
1D
#431117
1E
#432897
1Z
#432901
1=!
#432904
0;!
#433372
1O!
#433655
1K
#433679
0Y
#434065
1R
#436274
01
#436537
10
#440000
0"
1<
#440999
0D
#441117
0E
#443014
1P!
#447620
1$
#450000
1"
0<
#450999
1D
#451117
1E
#452897
1S
0Z
#453372
0O!
#453655
0K
#453679
1Y
#453766
1:!
#460000
0"
1<
#460999
0D
#461117
0E
#463014
0P!
#467620
0$
#470000
1"
0<
#470999
1D
#471117
1E
#472897
1Z
#472904
1;!
#473372
1O!
#473655
1K
#473679
0Y
#473726
0L
#473885
1O
#474065
0R
#474136
0M
#474295
1P
#476274
11
#480000
0"
1<
#480999
0D
#481117
0E
#483014
1P!
#487620
1$
#490000
1"
0<
#490999
1D
#491117
1E
#492897
0N
1Q
0S
0Z
#493372
0O!
#493492
0<!
#493530
1>!
#493638
1M
#493655
0K
#493656
0U
#493658
1L
#493679
1Y
#493680
0P
#493703
0O
#493727
1V
#493766
0:!
#493774
1U
#493845
0V
#494068
0M
#494113
1P
#500000
0"
1<
#500999
0D
#501117
0E
#503014
0P!
#507620
0$
#510000
1"
0<
#510999
1D
#511117
1E
#512897
1Z
#512901
1?!
0=!
#512904
0;!
#513372
1O!
#513655
1K
#513679
0Y
#514065
1R
#516274
01
#516537
00
#516547
1/
#520000
0"
1<
#520999
0D
#521117
0E
#523014
1P!
#527620
1$
#530000
1"
0<
#530999
1D
#531117
1E
#532897
1S
0Z
#533372
0O!
#533655
0K
#533679
1Y
#533766
1:!
#540000
0"
1<
#540999
0D
#541117
0E
#543014
0P!
#547620
0$
#550000
1"
0<
#550999
1D
#551117
1E
#552897
1Z
#552904
1;!
#553372
1O!
#553655
1K
#553679
0Y
#553726
0L
#554065
0R
#554136
1M
#556274
11
#560000
0"
1<
#560999
0D
#561117
0E
#563014
1P!
#567620
1$
#570000
1"
0<
#570999
1D
#571117
1E
#572897
1N
0S
0Z
#573372
0O!
#573492
1<!
#573638
0M
#573655
0K
#573658
1L
#573679
1Y
#573766
0:!
#574068
1M
#580000
0"
1<
#580999
0D
#581117
0E
#583014
0P!
#587620
0$
#590000
1"
0<
#590999
1D
#591117
1E
#592897
1Z
#592901
1=!
#592904
0;!
#593372
1O!
#593655
1K
#593679
0Y
#594065
1R
#596274
01
#596537
10
#600000
0"
1<
#600999
0D
#601117
0E
#603014
1P!
#607620
1$
#610000
1"
0<
#610999
1D
#611117
1E
#612897
1S
0Z
#613372
0O!
#613377
0T
#613655
0K
#613679
1Y
#613766
1:!
#620000
0"
1<
#620999
0D
#621117
0E
#623014
0P!
#627620
0$
#630000
1"
0<
#630999
1D
#631117
1E
#632897
1Z
#632904
1;!
#633372
1O!
#633655
1K
#633679
0Y
#633726
0L
#633885
1O
#633956
0U
#634027
1V
#634065
0R
#634136
0M
#634295
0P
#634366
0@!
#634437
1W
#636274
11
#640000
0"
1<
#640999
0D
#641117
0E
#643014
1P!
#647620
1$
#650000
1"
0<
#650999
1D
#651117
1E
#652897
0N
0Q
0S
1X
0Z
0A!
#653372
0O!
#653492
0<!
#653530
0>!
#653638
1M
#653640
1T
#653655
0K
#653656
1U
#653657
0\
#653658
1L
#653679
1Y
0U!
#653680
1P
#653681
0W
#653703
0O
#653766
0:!
#653770
0B!
#653829
0V
#653900
1\
#654068
0M
#654113
0P
#654239
1W
#660000
0"
1<
#660999
0D
#661117
0E
#663014
0P!
#667620
0$
#670000
1"
0<
#670999
1D
#671117
1E
#672897
1Z
#672901
1D!
0C!
0?!
0=!
#672904
0;!
#673372
1O!
#673655
1K
#673679
0Y
#674065
1R
#676274
01
#676532
0.
#676536
1-
#676537
00
#676547
0/
#680000
0"
1<
#680999
0D
#681117
0E
#683014
1P!
#687620
1$
#690000
1"
0<
#690999
1D
#691117
1E
#692897
1S
0Z
#693372
0O!
#693655
0K
#693679
1Y
#693766
1:!
#700000
0"
1<
#700999
0D
#701117
0E
#703014
0P!
#707620
0$
#710000
1"
0<
#710999
1D
#711117
1E
#712897
1Z
#712904
1;!
#713372
1O!
#713655
1K
#713679
0Y
#713726
0L
#714065
0R
#714136
1M
#716274
11
#720000
0"
1<
#720999
0D
#721117
0E
#723014
1P!
#727620
1$
#730000
1"
0<
#730999
1D
#731117
1E
#732897
1N
0S
0Z
#733372
0O!
#733492
1<!
#733638
0M
#733655
0K
#733658
1L
#733679
1Y
#733766
0:!
#734068
1M
#740000
0"
1<
#740999
0D
#741117
0E
#743014
0P!
#747620
0$
#750000
1"
0<
#750999
1D
#751117
1E
#752897
1Z
#752901
1=!
#752904
0;!
#753372
1O!
#753655
1K
#753679
0Y
#754065
1R
#756274
01
#756537
10
#760000
0"
1<
#760999
0D
#761117
0E
#763014
1P!
#767620
1$
#770000
1"
0<
#770999
1D
#771117
1E
#772897
1S
0Z
#773372
0O!
#773655
0K
#773679
1Y
#773766
1:!
#780000
0"
1<
#780999
0D
#781117
0E
#783014
0P!
#787620
0$
#790000
1"
0<
#790999
1D
#791117
1E
#792897
1Z
#792904
1;!
#793372
1O!
#793655
1K
#793679
0Y
#793726
0L
#793885
1O
#794065
0R
#794136
0M
#794295
1P
#796274
11
#800000
0"
1<
#800999
0D
#801117
0E
#803014
1P!
#807620
1$
#810000
1"
0<
#810999
1D
#811117
1E
#812897
0N
1Q
0S
0Z
#813372
0O!
#813492
0<!
#813530
1>!
#813638
1M
#813655
0K
#813656
0U
#813658
1L
#813679
1Y
#813680
0P
#813703
0O
#813766
0:!
#813774
1U
#814068
0M
#814113
1P
#820000
0"
1<
#820999
0D
#821117
0E
#823014
0P!
#827620
0$
#830000
1"
0<
#830999
1D
#831117
1E
#832897
1Z
#832901
1?!
0=!
#832904
0;!
#833372
1O!
#833655
1K
#833679
0Y
#834065
1R
#836274
01
#836537
00
#836547
1/
#840000
0"
1<
#840999
0D
#841117
0E
#843014
1P!
#847620
1$
#850000
1"
0<
#850999
1D
#851117
1E
#852897
1S
0Z
#853372
0O!
#853655
0K
#853679
1Y
#853766
1:!
#860000
0"
1<
#860999
0D
#861117
0E
#863014
0P!
#867620
0$
#870000
1"
0<
#870999
1D
#871117
1E
#872897
1Z
#872904
1;!
#873372
1O!
#873655
1K
#873679
0Y
#873726
0L
#874065
0R
#874136
1M
#876274
11
#880000
0"
1<
#880999
0D
#881117
0E
#883014
1P!
#887620
1$
#890000
1"
0<
#890999
1D
#891117
1E
#892897
1N
0S
0Z
#893372
0O!
#893492
1<!
#893638
0M
#893655
0K
#893658
1L
#893679
1Y
#893766
0:!
#894068
1M
#900000
0"
1<
#900999
0D
#901117
0E
#903014
0P!
#907620
0$
#910000
1"
0<
#910999
1D
#911117
1E
#912897
1Z
#912901
1=!
#912904
0;!
#913372
1O!
#913655
1K
#913679
0Y
#914065
1R
#916274
01
#916537
10
#920000
0"
1<
#920999
0D
#921117
0E
#923014
1P!
#927620
1$
#930000
1"
0<
#930999
1D
#931117
1E
#932897
1S
0Z
#933372
0O!
#933655
0K
#933679
1Y
#933766
1:!
#940000
0"
1<
#940999
0D
#941117
0E
#943014
0P!
#947620
0$
#950000
1"
0<
#950999
1D
#951117
1E
#952897
1Z
#952904
1;!
#953372
1O!
#953655
1K
#953679
0Y
#953726
0L
#953885
1O
#953956
0U
#954065
0R
#954136
0M
#954295
0P
#954366
1@!
#956274
11
#960000
0"
1<
#960999
0D
#961117
0E
#963014
1P!
#967620
1$
#970000
1"
0<
#970999
1D
#971117
1E
#972897
0N
0Q
0S
0Z
1A!
#973372
0O!
#973492
0<!
#973530
0>!
#973638
1M
#973655
0K
#973656
1U
#973658
1L
#973679
1Y
#973680
1P
#973703
0O
#973766
0:!
#973770
1B!
#974068
0M
#974113
0P
#980000
0"
1<
#980999
0D
#981117
0E
#983014
0P!
#987620
0$
#990000
1"
0<
#990999
1D
#991117
1E
#992897
1Z
#992901
1C!
0?!
0=!
#992904
0;!
#993372
1O!
#993655
1K
#993679
0Y
#994065
1R
#996274
01
#996532
1.
#996537
00
#996547
0/
#1000000
0"
1<
#1000999
0D
#1001117
0E
#1003014
1P!
#1007620
1$
#1010000
1"
0<
#1010999
1D
#1011117
1E
#1012897
1S
0Z
#1013372
0O!
#1013655
0K
#1013679
1Y
#1013766
1:!
#1020000
0"
1<
#1020999
0D
#1021117
0E
#1023014
0P!
#1027620
0$
#1030000
1"
0<
#1030999
1D
#1031117
1E
#1032897
1Z
#1032904
1;!
#1033372
1O!
#1033655
1K
#1033679
0Y
#1033726
0L
#1034065
0R
#1034136
1M
#1036274
11
#1040000
0"
1<
#1040999
0D
#1041117
0E
#1043014
1P!
#1047620
1$
#1050000
1"
0<
#1050999
1D
#1051117
1E
#1052897
1N
0S
0Z
#1053372
0O!
#1053492
1<!
#1053638
0M
#1053655
0K
#1053658
1L
#1053679
1Y
#1053766
0:!
#1054068
1M
#1060000
0"
1<
#1060999
0D
#1061117
0E
#1063014
0P!
#1067620
0$
#1070000
1"
0<
#1070999
1D
#1071117
1E
#1072897
1Z
#1072901
1=!
#1072904
0;!
#1073372
1O!
#1073655
1K
#1073679
0Y
#1074065
1R
#1076274
01
#1076537
10
#1080000
0"
1<
#1080999
0D
#1081117
0E
#1083014
1P!
#1087620
1$
#1090000
1"
0<
#1090999
1D
#1091117
1E
#1092897
1S
0Z
#1093372
0O!
#1093655
0K
#1093679
1Y
#1093766
1:!
#1100000
0"
1<
#1100999
0D
#1101117
0E
#1103014
0P!
#1107620
0$
#1110000
1"
0<
#1110999
1D
#1111117
1E
#1112897
1Z
#1112904
1;!
#1113372
1O!
#1113655
1K
#1113679
0Y
#1113726
0L
#1113885
1O
#1114065
0R
#1114136
0M
#1114295
1P
#1116274
11
#1120000
0"
1<
#1120999
0D
#1121117
0E
#1123014
1P!
#1127620
1$
#1130000
1"
0<
#1130999
1D
#1131117
1E
#1132897
0N
1Q
0S
0Z
#1133372
0O!
#1133492
0<!
#1133530
1>!
#1133638
1M
#1133655
0K
#1133656
0U
#1133658
1L
#1133679
1Y
#1133680
0P
#1133703
0O
#1133727
1V
#1133766
0:!
#1133774
1U
#1133798
0\
#1133845
0V
#1133916
1\
#1134068
0M
#1134113
1P
#1140000
0"
1<
#1140999
0D
#1141117
0E
#1143014
0P!
#1147620
0$
#1150000
1"
0<
#1150999
1D
#1151117
1E
#1152897
1Z
#1152901
1?!
0=!
#1152904
0;!
#1153372
1O!
#1153655
1K
#1153679
0Y
#1154065
1R
#1156274
01
#1156537
00
#1156547
1/
#1160000
0"
1<
#1160999
0D
#1161117
0E
#1163014
1P!
#1167620
1$
#1170000
1"
0<
#1170999
1D
#1171117
1E
#1172897
1S
0Z
#1173372
0O!
#1173655
0K
#1173679
1Y
#1173766
1:!
#1180000
0"
1<
#1180999
0D
#1181117
0E
#1183014
0P!
#1187620
0$
#1190000
1"
0<
#1190999
1D
#1191117
1E
#1192897
1Z
#1192904
1;!
#1193372
1O!
#1193655
1K
#1193679
0Y
#1193726
0L
#1194065
0R
#1194136
1M
#1196274
11
#1200000
0"
1<
#1200999
0D
#1201117
0E
#1203014
1P!
#1207620
1$
#1210000
1"
0<
#1210999
1D
#1211117
1E
#1212897
1N
0S
0Z
#1213372
0O!
#1213492
1<!
#1213638
0M
#1213655
0K
#1213658
1L
#1213679
1Y
#1213766
0:!
#1214068
1M
#1220000
0"
1<
#1220999
0D
#1221117
0E
#1223014
0P!
#1227620
0$
#1230000
1"
0<
#1230999
1D
#1231117
1E
#1232897
1Z
#1232901
1=!
#1232904
0;!
#1233372
1O!
#1233655
1K
#1233679
0Y
#1234065
1R
#1236274
01
#1236537
10
#1240000
0"
1<
#1240999
0D
#1241117
0E
#1243014
1P!
#1247620
1$
#1250000
1"
0<
#1250999
1D
#1251117
1E
#1252897
1S
0Z
#1253372
0O!
#1253377
0T
#1253655
0K
#1253679
1Y
#1253766
1:!
#1260000
0"
1<
#1260999
0D
#1261117
0E
#1263014
0P!
#1267620
0$
#1270000
1"
0<
#1270999
1D
#1271117
1E
#1272897
1Z
#1272904
1;!
#1273371
1[
#1273372
1O!
#1273655
1K
#1273679
0Y
#1273726
0L
#1273885
1O
#1273956
0U
#1274027
1V
#1274065
0R
#1274098
0\
#1274136
0M
#1274295
0P
#1274366
0@!
#1274437
0W
#1274508
1]
#1276274
11
#1280000
0"
1<
#1280999
0D
#1281117
0E
#1283014
1P!
#1287620
1$
#1290000
1"
0<
#1290999
1D
#1291117
1E
#1292897
0N
0Q
0S
0X
0Z
1^
0A!
#1293365
1C
#1293371
0[
#1293372
0O!
#1293492
0<!
#1293530
0>!
#1293544
1E!
#1293610
1_
#1293637
0]
#1293638
1M
#1293640
1T
#1293655
0K
#1293656
1U
#1293657
1\
#1293658
1L
#1293679
1Y
#1293680
1P
#1293681
1W
#1293703
0O
#1293728
0_
#1293766
0:!
#1293770
0B!
#1293829
0V
#1294067
1]
#1294068
0M
#1294113
0P
#1294239
0W
#1300000
0"
1<
#1300999
0D
#1301117
0E
#1303014
0P!
#1307620
0$
#1310000
1"
0<
#1310999
1D
#1311117
1E
#1312897
1Z
#1312901
1F!
0D!
0C!
0?!
0=!
#1312904
0;!
#1313372
1O!
#1313655
1K
#1313679
0Y
#1314065
1R
#1316274
01
#1316529
1,
#1316532
0.
#1316536
0-
#1316537
00
#1316547
0/
#1320000
0"
1<
#1320999
0D
#1321117
0E
#1323014
1P!
#1327620
1$
#1330000
1"
0<
#1330999
1D
#1331117
1E
#1332897
1S
0Z
#1333372
0O!
#1333655
0K
#1333679
1Y
#1333766
1:!
#1340000
0"
1<
#1340999
0D
#1341117
0E
#1343014
0P!
#1347620
0$
#1350000
1"
0<
#1350999
1D
#1351117
1E
#1352897
1Z
#1352904
1;!
#1353372
1O!
#1353655
1K
#1353679
0Y
#1353726
0L
#1354065
0R
#1354136
1M
#1356274
11
#1360000
0"
1<
#1360999
0D
#1361117
0E
#1363014
1P!
#1367620
1$
#1370000
1"
0<
#1370999
1D
#1371117
1E
#1372897
1N
0S
0Z
#1373372
0O!
#1373492
1<!
#1373638
0M
#1373655
0K
#1373658
1L
#1373679
1Y
#1373766
0:!
#1374068
1M
#1380000
0"
1<
#1380999
0D
#1381117
0E
#1383014
0P!
#1387620
0$
#1390000
1"
0<
#1390999
1D
#1391117
1E
#1392897
1Z
#1392901
1=!
#1392904
0;!
#1393372
1O!
#1393655
1K
#1393679
0Y
