LSP/prvniUkolMajak/DCE/Templates/DE115_copy/simulation/qsim/LSP.msim.vcd
$comment
	File created using the following command:
		vcd file LSP.msim.vcd -direction
$end
$date
	Thu Feb 20 14:10:59 2020
$end
$version
	ModelSim Version 10.1d
$end
$timescale
	1ps
$end
$scope module majakEA_vlg_vec_tst $end
$var reg 1 ! A $end
$var reg 1 " B $end
$var reg 1 # C $end
$var reg 1 $ D $end
$var wire 1 % M $end
$var wire 1 & sampler $end
$scope module i1 $end
$var wire 1 ' gnd $end
$var wire 1 ( vcc $end
$var wire 1 ) unknown $end
$var tri1 1 * devclrn $end
$var tri1 1 + devpor $end
$var tri1 1 , devoe $end
$var wire 1 - M~output_o $end
$var wire 1 . A~input_o $end
$var wire 1 / B~input_o $end
$var wire 1 0 C~input_o $end
$var wire 1 1 D~input_o $end
$var wire 1 2 inst4~0_combout $end
$upscope $end
$upscope $end
$enddefinitions $end
#0
$dumpvars
0!
0"
0#
0$
x%
x&
0'
1(
x)
1*
1+
1,
x-
0.
0/
00
01
x2
$end
#3608
02
#6993
0-
0%
#10000
1$
0&
#10679
11
#14061
12
#17527
1-
1%
#20000
1#
0$
1&
#20709
10
#20785
01
#24393
02
#27778
0-
0%
#30000
1$
0&
#30679
11
#34061
12
#37527
1-
1%
#40000
1"
0#
0$
1&
#40659
1/
#40785
01
#40815
00
#44363
02
#47748
0-
0%
#50000
1$
0&
#50679
11
#60000
1#
0$
1&
#60709
10
#60785
01
#64009
12
#64393
02
#70000
1$
0&
#70679
11
#74061
12
#77527
1-
1%
#80000
1!
0"
0#
0$
1&
#80649
1.
#80765
0/
#80785
01
#80815
00
#90000
1$
0&
#90679
11
#100000
1#
0$
1&
#100709
10
#100785
01
#110000
1$
0&
#110679
11
#120000
1"
0#
0$
1&
#120659
1/
#120785
01
#120815
00
#124363
02
#127748
0-
0%
#130000
1$
0&
#130679
11
#140000
1#
0$
1&
#140709
10
#140785
01
#144009
12
#147475
1-
1%
#150000
1$
0&
#150679
11
#160000
0!
0"
0#
0$
1&
#160755
0.
#160765
0/
#160785
01
#160815
00
#164393
02
#167778
0-
0%
#170000
1$
0&
#170679
11
#174061
12
#177527
1-
1%
#180000
1#
0$
1&
#180709
10
#180785
01
#184393
02
#187778
0-
0%
#190000
1$
0&
#190679
11
#194061
12
#197527
1-
1%
#200000
1"
0#
0$
1&
#200659
1/
#200785
01
#200815
00
#204363
02
#207748
0-
0%
#210000
1$
0&
#210679
11
#220000
1#
0$
1&
#220709
10
#220785
01
#224009
12
#224393
02
#230000
1$
0&
#230679
11
#234061
12
#237527
1-
1%
#240000
1!
0"
0#
0$
1&
#240649
1.
#240765
0/
#240785
01
#240815
00
#250000
1$
0&
#250679
11
#260000
1#
0$
1&
#260709
10
#260785
01
#270000
1$
0&
#270679
11
#280000
1"
0#
0$
1&
#280659
1/
#280785
01
#280815
00
#284363
02
#287748
0-
0%
#290000
1$
0&
#290679
11
#300000
1#
0$
1&
#300709
10
#300785
01
#304009
12
#307475
1-
1%
#310000
1$
0&
#310679
11
#320000
0!
0"
0#
0$
1&
#320755
0.
#320765
0/
#320785
01
#320815
00
#324393
02
#327778
0-
0%
#330000
1$
0&
#330679
11
#334061
12
#337527
1-
1%
#340000
1#
0$
1&
#340709
10
#340785
01
#344393
02
#347778
0-
0%
#350000
1$
0&
#350679
11
#354061
12
#357527
1-
1%
#360000
1"
0#
0$
1&
#360659
1/
#360785
01
#360815
00
#364363
02
#367748
0-
0%
#370000
1$
0&
#370679
11
#380000
1#
0$
1&
#380709
10
#380785
01
#384009
12
#384393
02
#390000
1$
0&
#390679
11
#394061
12
#397527
1-
1%
#400000
1!
0"
0#
0$
1&
#400649
1.
#400765
0/
#400785
01
#400815
00
#410000
1$
0&
#410679
11
#420000
1#
0$
1&
#420709
10
#420785
01
#430000
1$
0&
#430679
11
#440000
1"
0#
0$
1&
#440659
1/
#440785
01
#440815
00
#444363
02
#447748
0-
0%
#450000
1$
0&
#450679
11
#460000
1#
0$
1&
#460709
10
#460785
01
#464009
12
#467475
1-
1%
#470000
1$
0&
#470679
11
#480000
0!
0"
0#
0$
1&
#480755
0.
#480765
0/
#480785
01
#480815
00
#484393
02
#487778
0-
0%
#490000
1$
0&
#490679
11
#494061
12
#497527
1-
1%
#500000
1#
0$
1&
#500709
10
#500785
01
#504393
02
#507778
0-
0%
#510000
1$
0&
#510679
11
#514061
12
#517527
1-
1%
#520000
1"
0#
0$
1&
#520659
1/
#520785
01
#520815
00
#524363
02
#527748
0-
0%
#530000
1$
0&
#530679
11
#540000
1#
0$
1&
#540709
10
#540785
01
#544009
12
#544393
02
#550000
1$
0&
#550679
11
#554061
12
#557527
1-
1%
#560000
1!
0"
0#
0$
1&
#560649
1.
#560765
0/
#560785
01
#560815
00
#570000
1$
0&
#570679
11
#580000
1#
0$
1&
#580709
10
#580785
01
#590000
1$
0&
#590679
11
#600000
1"
0#
0$
1&
#600659
1/
#600785
01
#600815
00
#604363
02
#607748
0-
0%
#610000
1$
0&
#610679
11
#620000
1#
0$
1&
#620709
10
#620785
01
#624009
12
#627475
1-
1%
#630000
1$
0&
#630679
11
#640000
0!
0"
0#
0$
1&
#640755
0.
#640765
0/
#640785
01
#640815
00
#644393
02
#647778
0-
0%
#650000
1$
0&
#650679
11
#654061
12
#657527
1-
1%
#660000
1#
0$
1&
#660709
10
#660785
01
#664393
02
#667778
0-
0%
#670000
1$
0&
#670679
11
#674061
12
#677527
1-
1%
#680000
1"
0#
0$
1&
#680659
1/
#680785
01
#680815
00
#684363
02
#687748
0-
0%
#690000
1$
0&
#690679
11
#700000
1#
0$
1&
#700709
10
#700785
01
#704009
12
#704393
02
#710000
1$
0&
#710679
11
#714061
12
#717527
1-
1%
#720000
1!
0"
0#
0$
1&
#720649
1.
#720765
0/
#720785
01
#720815
00
#730000
1$
0&
#730679
11
#740000
1#
0$
1&
#740709
10
#740785
01
#750000
1$
0&
#750679
11
#760000
1"
0#
0$
1&
#760659
1/
#760785
01
#760815
00
#764363
02
#767748
0-
0%
#770000
1$
0&
#770679
11
#780000
1#
0$
1&
#780709
10
#780785
01
#784009
12
#787475
1-
1%
#790000
1$
0&
#790679
11
#800000
0!
0"
0#
0$
1&
#800755
0.
#800765
0/
#800785
01
#800815
00
#804393
02
#807778
0-
0%
#810000
1$
0&
#810679
11
#814061
12
#817527
1-
1%
#820000
1#
0$
1&
#820709
10
#820785
01
#824393
02
#827778
0-
0%
#830000
1$
0&
#830679
11
#834061
12
#837527
1-
1%
#840000
1"
0#
0$
1&
#840659
1/
#840785
01
#840815
00
#844363
02
#847748
0-
0%
#850000
1$
0&
#850679
11
#860000
1#
0$
1&
#860709
10
#860785
01
#864009
12
#864393
02
#870000
1$
0&
#870679
11
#874061
12
#877527
1-
1%
#880000
1!
0"
0#
0$
1&
#880649
1.
#880765
0/
#880785
01
#880815
00
#890000
1$
0&
#890679
11
#900000
1#
0$
1&
#900709
10
#900785
01
#910000
1$
0&
#910679
11
#920000
1"
0#
0$
1&
#920659
1/
#920785
01
#920815
00
#924363
02
#927748
0-
0%
#930000
1$
0&
#930679
11
#940000
1#
0$
1&
#940709
10
#940785
01
#944009
12
#947475
1-
1%
#950000
1$
0&
#950679
11
#960000
0!
0"
0#
0$
1&
#960755
0.
#960765
0/
#960785
01
#960815
00
#964393
02
#967778
0-
0%
#970000
1$
0&
#970679
11
#974061
12
#977527
1-
1%
#980000
1#
0$
1&
#980709
10
#980785
01
#984393
02
#987778
0-
0%
#990000
1$
0&
#990679
11
#994061
12
#997527
1-
1%
