LSP/prvniUkolMajak/simulation/qsim/blob.msim.vcd
$comment
	File created using the following command:
		vcd file blob.msim.vcd -direction
$end
$date
	Thu Mar 05 13:34:22 2020
$end
$version
	ModelSim Version 10.1d
$end
$timescale
	1ps
$end
$scope module NovaBlob_vlg_vec_tst $end
$var reg 1 ! CLOCK_50 $end
$var reg 1 " KEY [0:0] $end
$var reg 1 # SW [0:0] $end
$var wire 1 $ LEDR [0] $end
$var wire 1 % sampler $end
$scope module i1 $end
$var wire 1 & gnd $end
$var wire 1 ' vcc $end
$var wire 1 ( unknown $end
$var tri1 1 ) devclrn $end
$var tri1 1 * devpor $end
$var tri1 1 + devoe $end
$var wire 1 , inst3|inst|cnt[0]~9_combout $end
$var wire 1 - inst3|inst|cnt[0]~10 $end
$var wire 1 . inst3|inst|cnt[1]~11_combout $end
$var wire 1 / inst3|inst|cnt[1]~12 $end
$var wire 1 0 inst3|inst|cnt[2]~13_combout $end
$var wire 1 1 inst3|inst|cnt[2]~14 $end
$var wire 1 2 inst3|inst|cnt[3]~15_combout $end
$var wire 1 3 inst3|inst|cnt[3]~16 $end
$var wire 1 4 inst3|inst|cnt[4]~17_combout $end
$var wire 1 5 inst3|inst|cnt[4]~18 $end
$var wire 1 6 inst3|inst|cnt[5]~19_combout $end
$var wire 1 7 inst3|inst|cnt[5]~20 $end
$var wire 1 8 inst3|inst|cnt[6]~21_combout $end
$var wire 1 9 inst3|inst|cnt[6]~22 $end
$var wire 1 : inst3|inst|cnt[7]~23_combout $end
$var wire 1 ; inst3|inst|cnt[7]~24 $end
$var wire 1 < inst3|inst|cnt[8]~25_combout $end
$var wire 1 = inst2|inst|cnt[0]~9_combout $end
$var wire 1 > inst2|inst|cnt[0]~10 $end
$var wire 1 ? inst2|inst|cnt[1]~11_combout $end
$var wire 1 @ inst2|inst|cnt[1]~12 $end
$var wire 1 A inst2|inst|cnt[2]~13_combout $end
$var wire 1 B inst2|inst|cnt[2]~14 $end
$var wire 1 C inst2|inst|cnt[3]~15_combout $end
$var wire 1 D inst2|inst|cnt[3]~16 $end
$var wire 1 E inst2|inst|cnt[4]~17_combout $end
$var wire 1 F inst2|inst|cnt[4]~18 $end
$var wire 1 G inst2|inst|cnt[5]~19_combout $end
$var wire 1 H inst2|inst|cnt[5]~20 $end
$var wire 1 I inst2|inst|cnt[6]~21_combout $end
$var wire 1 J inst2|inst|cnt[6]~22 $end
$var wire 1 K inst2|inst|cnt[7]~23_combout $end
$var wire 1 L inst2|inst|cnt[7]~24 $end
$var wire 1 M inst2|inst|cnt[8]~25_combout $end
$var wire 1 N inst5|inst1~q $end
$var wire 1 O inst3|inst|q2~q $end
$var wire 1 P inst5|inst3~combout $end
$var wire 1 Q inst2|inst|q2~q $end
$var wire 1 R inst3|inst|LessThan0~0_combout $end
$var wire 1 S inst3|inst|LessThan0~1_combout $end
$var wire 1 T inst3|inst|q2~0_combout $end
$var wire 1 U inst2|inst|LessThan0~0_combout $end
$var wire 1 V inst2|inst|LessThan0~1_combout $end
$var wire 1 W inst2|inst|q2~0_combout $end
$var wire 1 X instdiv|inst|q2~q $end
$var wire 1 Y inst3|inst|LessThan0~2_combout $end
$var wire 1 Z inst2|inst|LessThan0~2_combout $end
$var wire 1 [ instdiv|inst|q2~0_combout $end
$var wire 1 \ instdiv|inst|cnt~0_combout $end
$var wire 1 ] instdiv|inst|cnt~1_combout $end
$var wire 1 ^ instdiv|inst|cnt~2_combout $end
$var wire 1 _ SW[0]~input_o $end
$var wire 1 ` CLOCK_50~input_o $end
$var wire 1 a CLOCK_50~inputclkctrl_outclk $end
$var wire 1 b inst2|inst|q2~clkctrl_outclk $end
$var wire 1 c inst3|inst|q2~clkctrl_outclk $end
$var wire 1 d instdiv|inst|q2~clkctrl_outclk $end
$var wire 1 e LEDR[0]~output_o $end
$var wire 1 f inst4|inst|inst2~combout $end
$var wire 1 g KEY[0]~input_o $end
$var wire 1 h inst4|inst|inst~q $end
$var wire 1 i inst4|inst|inst3~combout $end
$var wire 1 j inst4|inst|inst8~q $end
$var wire 1 k inst|inst4~0_combout $end
$var wire 1 l inst4|inst|inst11~combout $end
$var wire 1 m inst4|inst|inst9~q $end
$var wire 1 n inst4|inst|inst12~combout $end
$var wire 1 o inst4|inst|inst10~q $end
$var wire 1 p inst|inst3~0_combout $end
$var wire 1 q inst2|inst|cnt [8] $end
$var wire 1 r inst2|inst|cnt [7] $end
$var wire 1 s inst2|inst|cnt [6] $end
$var wire 1 t inst2|inst|cnt [5] $end
$var wire 1 u inst2|inst|cnt [4] $end
$var wire 1 v inst2|inst|cnt [3] $end
$var wire 1 w inst2|inst|cnt [2] $end
$var wire 1 x inst2|inst|cnt [1] $end
$var wire 1 y inst2|inst|cnt [0] $end
$var wire 1 z inst3|inst|cnt [8] $end
$var wire 1 { inst3|inst|cnt [7] $end
$var wire 1 | inst3|inst|cnt [6] $end
$var wire 1 } inst3|inst|cnt [5] $end
$var wire 1 ~ inst3|inst|cnt [4] $end
$var wire 1 !! inst3|inst|cnt [3] $end
$var wire 1 "! inst3|inst|cnt [2] $end
$var wire 1 #! inst3|inst|cnt [1] $end
$var wire 1 $! inst3|inst|cnt [0] $end
$var wire 1 %! instdiv|inst|cnt [2] $end
$var wire 1 &! instdiv|inst|cnt [1] $end
$var wire 1 '! instdiv|inst|cnt [0] $end
$upscope $end
$upscope $end
$enddefinitions $end
#0
$dumpvars
0!
b1 "
b0 #
0$
x%
0&
1'
x(
1)
1*
1+
1,
0-
0.
1/
00
01
02
13
04
05
06
17
08
09
0:
1;
0<
1=
0>
0?
1@
0A
0B
0C
1D
0E
0F
0G
1H
0I
0J
0K
1L
0M
0N
0O
0P
0Q
1R
1S
0T
1U
1V
0W
0X
0Y
0Z
0[
0\
1]
0^
0_
0`
0a
0b
0c
0d
0e
0f
1g
0h
0i
0j
0k
0l
0m
0n
0o
0p
0y
0x
0w
0v
0u
0t
0s
0r
0q
0$!
0#!
0"!
0!!
0~
0}
0|
0{
0z
0'!
0&!
0%!
$end
#10000
1!
1`
1a
0%
1'!
1^
0]
#20000
0!
0`
0a
1%
#30000
1!
1`
1a
0%
1&!
0'!
1]
#40000
0!
0`
0a
1%
#50000
1!
1`
1a
0%
1'!
0^
0]
1\
#60000
0!
0`
0a
1%
#70000
1!
1`
1a
0%
0&!
0'!
1%!
0\
1[
#80000
0!
0`
0a
1%
#90000
1!
1`
1a
0%
1X
0%!
1d
1]
1y
1>
0=
1?
#100000
0!
0`
0a
1%
#110000
1!
1`
1a
0%
1'!
1^
0]
#120000
0!
0`
0a
1%
#130000
1!
1`
1a
0%
1&!
0'!
1]
#140000
0!
0`
0a
1%
#150000
1!
1`
1a
0%
1'!
0^
0]
1\
#160000
0!
0`
0a
1%
#170000
1!
1`
1a
0%
0&!
0'!
1%!
0\
0[
#180000
0!
0`
0a
1%
#190000
1!
1`
1a
0%
0X
0%!
0d
1]
#200000
b1 #
0!
1_
0`
0a
1%
1P
#210000
1!
1`
1a
0%
1'!
1^
0]
#220000
0!
0`
0a
1%
#230000
1!
1`
1a
0%
1&!
0'!
1]
#240000
0!
0`
0a
1%
#250000
1!
1`
1a
0%
1'!
0^
0]
1\
#260000
0!
0`
0a
1%
#270000
1!
1`
1a
0%
0&!
0'!
1%!
0\
1[
#280000
0!
0`
0a
1%
#290000
1!
1`
1a
0%
1X
0%!
1d
1]
1x
0y
0@
0?
0>
1=
1A
1@
1?
0A
#300000
0!
0`
0a
1%
#310000
1!
1`
1a
0%
1'!
1^
0]
#320000
0!
0`
0a
1%
#330000
1!
1`
1a
0%
1&!
0'!
1]
#340000
0!
0`
0a
1%
#350000
1!
1`
1a
0%
1'!
0^
0]
1\
#360000
0!
0`
0a
1%
#370000
1!
1`
1a
0%
0&!
0'!
1%!
0\
0[
#380000
0!
0`
0a
1%
#390000
1!
1`
1a
0%
0X
0%!
0d
1]
#400000
0!
0`
0a
1%
#410000
1!
1`
1a
0%
1'!
1^
0]
#420000
0!
0`
0a
1%
#430000
1!
1`
1a
0%
1&!
0'!
1]
#440000
0!
0`
0a
1%
#450000
1!
1`
1a
0%
1'!
0^
0]
1\
#460000
0!
0`
0a
1%
#470000
1!
1`
1a
0%
0&!
0'!
1%!
0\
1[
#480000
0!
0`
0a
1%
#490000
1!
1`
1a
0%
1X
0%!
1d
1]
1y
0U
1>
0=
0@
0?
1A
#500000
0!
0`
0a
1%
#510000
1!
1`
1a
0%
1'!
1^
0]
#520000
0!
0`
0a
1%
#530000
1!
1`
1a
0%
1&!
0'!
1]
#540000
0!
0`
0a
1%
#550000
1!
1`
1a
0%
1'!
0^
0]
1\
#560000
0!
0`
0a
1%
#570000
1!
1`
1a
0%
0&!
0'!
1%!
0\
0[
#580000
0!
0`
0a
1%
#590000
1!
1`
1a
0%
0X
0%!
0d
1]
#600000
0!
0`
0a
1%
#610000
1!
1`
1a
0%
1'!
1^
0]
#620000
0!
0`
0a
1%
#630000
1!
1`
1a
0%
1&!
0'!
1]
#640000
0!
0`
0a
1%
#650000
1!
1`
1a
0%
1'!
0^
0]
1\
#660000
0!
0`
0a
1%
#670000
1!
1`
1a
0%
0&!
0'!
1%!
0\
1[
#680000
0!
0`
0a
1%
#690000
1!
1`
1a
0%
1X
0%!
1d
1]
1w
0x
0y
1B
0A
1@
1?
0>
1=
1C
0B
1A
0?
0C
#700000
0!
0`
0a
1%
#710000
1!
1`
1a
0%
1'!
1^
0]
#720000
0!
0`
0a
1%
#730000
b0 #
1!
0_
1`
1a
0%
0P
1&!
0'!
1]
#740000
0!
0`
0a
1%
#750000
1!
1`
1a
0%
1'!
0^
0]
1\
#760000
0!
0`
0a
1%
#770000
1!
1`
1a
0%
0&!
0'!
1%!
0\
0[
#780000
0!
0`
0a
1%
#790000
1!
1`
1a
0%
0X
0%!
0d
1]
#800000
0!
0`
0a
1%
#810000
1!
1`
1a
0%
1'!
1^
0]
#820000
0!
0`
0a
1%
#830000
1!
1`
1a
0%
1&!
0'!
1]
#840000
0!
0`
0a
1%
#850000
1!
1`
1a
0%
1'!
0^
0]
1\
#860000
0!
0`
0a
1%
#870000
1!
1`
1a
0%
0&!
0'!
1%!
0\
1[
#880000
0!
0`
0a
1%
#890000
1!
1`
1a
0%
1X
0%!
1d
1]
1y
1>
0=
1?
#900000
0!
0`
0a
1%
#910000
1!
1`
1a
0%
1'!
1^
0]
#920000
0!
0`
0a
1%
#930000
1!
1`
1a
0%
1&!
0'!
1]
#940000
0!
0`
0a
1%
#950000
1!
1`
1a
0%
1'!
0^
0]
1\
#960000
0!
0`
0a
1%
#970000
1!
1`
1a
0%
0&!
0'!
1%!
0\
0[
#980000
0!
0`
0a
1%
#990000
1!
1`
1a
0%
0X
0%!
0d
1]
